{
  "Comment.nvim": { "branch": "master", "commit": "e30b7f2008e52442154b66f7c519bfd2f1e32acb" },
  "LuaSnip": { "branch": "master", "commit": "03c8e67eb7293c404845b3982db895d59c0d1538" },
  "alpha-nvim": { "branch": "main", "commit": "355fbb81a59637a8963cf5847074f8c44dbef11f" },
  "auto-session": { "branch": "main", "commit": "96c06300c2b13d1c67dcf1c6c969b372c5543b7d" },
  "bufferline.nvim": { "branch": "main", "commit": "2e3c8cc5a57ddd32f1edd2ffd2ccb10c09421f6c" },
  "cmp-buffer": { "branch": "main", "commit": "3022dbc9166796b644a841a02de8dd1cc1d311fa" },
  "cmp-nvim-lsp": { "branch": "main", "commit": "39e2eda76828d88b773cc27a3f61d2ad782c922d" },
  "cmp-path": { "branch": "main", "commit": "91ff86cd9c29299a64f968ebb45846c485725f23" },
  "cmp_luasnip": { "branch": "master", "commit": "05a9ab28b53f71d1aece421ef32fee2cb857a843" },
  "conform.nvim": { "branch": "master", "commit": "667102f26106709cddd2dff1f699610df5b94d7f" },
  "dressing.nvim": { "branch": "master", "commit": "6741f1062d3dc6e4755367a7e9b347b553623f04" },
  "friendly-snippets": { "branch": "main", "commit": "00ebcaa159e817150bd83bfe2d51fa3b3377d5c4" },
  "gitsigns.nvim": { "branch": "main", "commit": "562dc47189ad3c8696dbf460d38603a74d544849" },
  "indent-blankline.nvim": { "branch": "master", "commit": "dddb5d21811c319eb6e51a993d8fb44b193aae3f" },
  "lazy.nvim": { "branch": "main", "commit": "077102c5bfc578693f12377846d427f49bc50076" },
  "lazygit.nvim": { "branch": "main", "commit": "2432b447483f42ff2e18b2d392cb2bb27e495c08" },
  "lspkind.nvim": { "branch": "master", "commit": "cff4ae321a91ee3473a92ea1a8c637e3a9510aec" },
  "lualine.nvim": { "branch": "master", "commit": "b431d228b7bbcdaea818bdc3e25b8cdbe861f056" },
  "mason-lspconfig.nvim": { "branch": "main", "commit": "3ed90180e70a6a50cd37ce7ecc3693bcdaa7b290" },
  "mason-tool-installer.nvim": { "branch": "main", "commit": "c5e07b8ff54187716334d585db34282e46fa2932" },
  "mason.nvim": { "branch": "main", "commit": "e2f7f9044ec30067bc11800a9e266664b88cda22" },
  "neodev.nvim": { "branch": "main", "commit": "46aa467dca16cf3dfe27098042402066d2ae242d" },
  "nvim-cmp": { "branch": "main", "commit": "ae644feb7b67bf1ce4260c231d1d4300b19c6f30" },
  "nvim-lint": { "branch": "master", "commit": "ad0fe35e80f5cd31a0f19176d7b30e5c3011119d" },
  "nvim-lsp-file-operations": { "branch": "master", "commit": "92a673de7ecaa157dd230d0128def10beb56d103" },
  "nvim-lspconfig": { "branch": "master", "commit": "037ea0901ce9a28cfcaa36302618f06d2e164fbf" },
  "nvim-surround": { "branch": "main", "commit": "ec2dc7671067e0086cdf29c2f5df2dd909d5f71f" },
  "nvim-tree.lua": { "branch": "master", "commit": "ad0b95dee55955817af635fa121f6e2486b10583" },
  "nvim-treesitter": { "branch": "master", "commit": "bfb50de9cb0673a3bff620d881f690fb7e0d1328" },
  "nvim-ts-autotag": { "branch": "main", "commit": "0cb76eea80e9c73b88880f0ca78fbd04c5bdcac7" },
  "nvim-ts-context-commentstring": { "branch": "main", "commit": "375c2d86cee6674afd75b4f727ce3a80065552f7" },
  "nvim-web-devicons": { "branch": "master", "commit": "3722e3d1fb5fe1896a104eb489e8f8651260b520" },
  "plenary.nvim": { "branch": "master", "commit": "a3e3bc82a3f95c5ed0d7201546d5d2c19b20d683" },
  "substitute.nvim": { "branch": "main", "commit": "97f49d16f8eea7967d41db4f657dd63af53eeba1" },
  "telescope-fzf-native.nvim": { "branch": "main", "commit": "cf48d4dfce44e0b9a2e19a008d6ec6ea6f01a83b" },
  "telescope.nvim": { "branch": "0.1.x", "commit": "a0bbec21143c7bc5f8bb02e0005fa0b982edc026" },
  "todo-comments.nvim": { "branch": "main", "commit": "8f45f353dc3649cb9b44cecda96827ea88128584" },
  "tokyonight.nvim": { "branch": "main", "commit": "b0e7c7382a7e8f6456f2a95655983993ffda745e" },
  "trouble.nvim": { "branch": "main", "commit": "6efc446226679fda0547c0fd6a7892fd5f5b15d8" },
  "vim-maximizer": { "branch": "master", "commit": "2e54952fe91e140a2e69f35f22131219fcd9c5f1" },
  "vim-tmux-navigator": { "branch": "master", "commit": "5b3c701686fb4e6629c100ed32e827edf8dad01e" },
  "which-key.nvim": { "branch": "main", "commit": "6c1584eb76b55629702716995cca4ae2798a9cca" }
}
